name,id,designation,tech/manufacturer,system id,fleet pts,hitpoints,armor rating,max flux,8/6/5/4%,flux dissipation,ordnance points,fighter bays,max speed,acceleration,deceleration,max turn rate,turn acceleration,mass,shield type,defense id,shield arc,shield upkeep,shield efficiency,phase cost,phase upkeep,min crew,max crew,cargo,fuel,fuel/ly,range,max burn,base value,cr %/day,CR to deploy,peak CR sec,CR loss/sec,supplies/rec,supplies/mo,c/s,c/f,f/s,f/f,crew/s,crew/f,hints,tags,rarity,breakProb,minPieces,maxPieces,travel drive,number
Assault,swp_drone_assault,,,,,200,50,500,,40,,,150,200,200,90,180,5,OMNI,,120,0,1,,,0,0,,,,,,,,,,,,,,,,,,,,,,0,,,,700
Flak,swp_flakdrone,,,,,750,100,500,,50,,,300,600,600,90,240,30,NONE,,,,,,,0,0,,,,,,,,,,,,,,,,,,,,,,0,,,,700
Ray,swp_ray_drone,,,,,200,100,500,,75,,,200,400,500,90,240,10,NONE,,,,,,,0,0,,,,,,,,,,,,,,,,,,,,,,0,,,,4
,,,,,,,,,,,,,,,,,,,,,,,,,,,,,,,,,,,,,,,,,,,,,,,,,,,,,
Hexblade,swp_hexblade,,High Tech,swp_invocation,,500,100,600,,40,0,,150,240,240,90,240,40,FRONT,,360,0,1,,,2,2,,,,,,,,,,,,,,,,,,,,,,0,,,,110
Partisan,swp_partisan,,Midline,,,750,150,200,,40,0,,150,150,100,80,160,40,NONE,,0,0,0,,,3,3,,,,,,,,,,,,,,,,,,,,,,0,,,,110
Drake,swp_drake,,Low Tech,flarelauncher_single,,400,50,400,,100,0,,250,300,200,175,250,20,NONE,,0,0,0,,,1,1,,,,,,,,,,,,,,,,,,,,,,0,,,,100
Falx,swp_falx,,High Tech,,,500,50,1000,,100,0,,350,500,400,200,800,30,NONE,,0,0,0,,,2,2,,,,,,,,,,,,,,,,,,,,,,0,,,,103
,,,,,,,,,,,,,,,,,,,,,,,,,,,,,,,,,,,,,,,,,,,,,,,,,,,,,
Dram (LP),swp_dram_luddic_path,Frigate,Luddic Path,flarelauncher,3,750,200,1500,1250,100,35,,120,70,50,30,60,200,OMNI,,90,0.5,1.2,,,5,10,15,200,1,200,9,9500,8,20,180,0.25,3,3,,,,,,,,LP_bp,,0.75,2,4,,209.5
Excelsior,swp_excelsior,Superfrigate,High Tech,swp_phaseshuntdrive,16,750,150,5000,625,50,35,,200,200,150,90,360,100,PHASE,swp_excelsiorphase,,,,0,-0.25,1,5,10,20,1,20,11,94000,10,40,120,0.25,20,20,,,,,,,"PHASE, HIDE_IN_CODEX","no_autofit, req_military, no_dealer",,0,2,2,,226
Alastor,swp_alastor,Frigate,Midline,maneuveringjets,4,2000,250,2700,2500,200,60,,125,100,80,60,120,200,FRONT,,240,0.5,0.9,,,10,30,30,20,1,20,10,12000,8,12,180,0.25,5,5,,,,,,,,"midline_bp, merc, ind",,0.5,2,2,,227
Nautilus,swp_nautilus,Combat Freighter,High Tech,displacer,3,1500,250,1700,1500,120,38,,130,125,125,90,120,200,OMNI,,90,0.4,0.8,,,5,30,75,25,1,25,9,8000,5,12,180,0.25,3,3,25,75,,,,,,"base_bp, ind",,0.6,2,2,,231
Hecate,swp_hecate,Corvette,High Tech,highenergyfocus,4,1250,125,2000,1750,140,38,,175,150,125,90,180,125,FRONT,,180,0.4,0.8,,,5,15,20,15,1,15,10,8500,10,15,180,0.25,3,3,,,,,,,,"hightech_bp, ind",,0.7,2,2,,232
,,,,,,,,,,,,,,,,,,,,,,,,,,,,,,,,,,,,,,,,,,,,,,,,,,,,,
Nebula (LP),swp_nebula_luddic_path,Destroyer,Luddic Path,flarelauncher,7,3000,175,2500,2500,150,50,,55,35,20,20,12,450,FRONT,,150,0.5,1,,,15,250,120,80,2,40,8,30000,4,20,240,0.25,6,6,,,,,36,125,,LP_bp,,0.6,2,3,,313
Sunder (U),swp_sunder_u,Destroyer,High Tech,highenergyfocus,11,4000,250,7500,8333,500,105,,90,80,60,30,30,350,FRONT,,300,0.4,1,,,50,70,80,50,2,25,9,53000,5,15,300,0.25,12,12,,,,,,,,"rare_bp, merc, ind",,0.5,2,3,,301.5
Nightwalker,swp_nightwalker,Phase Destroyer,High Tech,swp_chronoboost,16,4500,600,5500,8333,500,100,,80,60,60,25,60,550,PHASE,phasecloak,,,,0.06,0.03,30,40,45,30,2,15,9,130000,5,40,180,0.25,22,22,,,,,,,,"rare_bp, hist2t, merc, kanta_gift",0.75,0.7,2,3,,314
Caliber,swp_caliber,Destroyer,Low Tech,ammofeed,9,5000,800,5000,4167,200,85,,85,60,45,30,60,400,PHASE,damper,,,,,,40,75,75,60,2,30,9,35000,5,12,420,0.25,8,8,,,,,,,,"lowtech_bp, merc, ind",,0.4,2,3,,316
Archer,swp_archer,Missile Destroyer,Midline,forgevats,10,4500,400,3500,3333,200,95,,70,40,20,20,40,400,FRONT,,240,0.5,0.8,,,50,100,80,40,2,20,9,43000,5,12,300,0.25,10,10,,,,,,,,"midline_bp, merc, ind",,0.5,2,3,,317
Archon,swp_archon,Heavy Destroyer,High Tech,fortressshield,12,4500,500,9000,6667,400,90,,80,40,20,25,25,450,FRONT,,180,0.6,0.8,,,30,65,100,50,2,25,9,68000,5,15,360,0.25,14,14,,,,,,,,"rare_bp, hist1t, merc, ind",,0.4,2,3,,320
Arachne,swp_arachne,Advanced Destroyer,High Tech,flarelauncher_active,10,2500,400,7000,5000,300,65,,60,40,30,30,30,400,OMNI,,360,1,0.6,,,30,50,100,70,2,35,9,45000,5,15,420,0.25,9,9,,,,,,,,"hightech_bp, merc, ind",,0.5,2,3,,321
Albatross,swp_albatross,Escort Destroyer,Midline,canister_flak,7,5000,600,6000,3333,200,65,2,70,40,20,30,40,450,OMNI,,180,0.5,0.8,,,40,100,100,60,2,30,9,44000,4,12,420,0.25,7,7,,,,,,,,"midline_bp, merc, ind",,0.6,2,3,,325
Beholder,swp_beholder,Destroyer,High Tech,swp_drone_ray,10,4000,500,4500,5000,300,80,,60,40,40,20,60,400,OMNI,,180,0.5,0.8,,,40,60,70,40,2,20,9,57000,5,15,300,0.25,11,11,,,,,,,,"hightech_bp, merc, ind",,0.5,2,3,,328
Vortex,swp_vortex,Light Carrier,High Tech,swp_timefield,11,3000,250,5000,5000,300,75,2,80,60,45,30,45,350,OMNI,,180,0.5,0.7,,,50,100,80,40,2,20,9,64000,5,15,360,0.25,14,14,,,,,,,"CARRIER, COMBAT","rare_bp, hist2t, merc",0.75,0.6,2,3,,329
Striker,swp_striker,Light Destroyer,Low Tech,swp_punisherjets,8,4000,600,3500,3333,250,80,,80,80,55,40,70,350,FRONT,,210,0.4,1,,,30,70,60,60,2,30,9,26000,5,12,420,0.25,7,7,,,,,,,,"lowtech_bp, merc, ind",,0.5,2,3,,330
,,,,,,,,,,,,,,,,,,,,,,,,,,,,,,,,,,,,,,,,,,,,,,,,,,,,,
Vulture,swp_vulture,Fast Cruiser,Midline,drone_pd_x2,13,6500,850,7500,7000,350,120,,85,60,40,30,35,800,FRONT,,270,0.5,0.8,,,120,200,90,120,3,40,9,90000,4,12,480,0.25,17,17,,,,,,,,"midline_bp, merc, ind",,0.5,2,3,,412
Zenith,swp_zenith,Heavy Cruiser,High Tech,flarelauncher_active,17,10000,1000,12000,14000,700,170,1,55,35,25,12,15,2000,FRONT,,210,0.4,0.6,,,150,300,150,150,5,30,8,200000,3,15,420,0.25,30,30,,,,,,,,"rare_bp, hist2t, merc, ind",,0.5,2,3,,414
Circe,swp_circe,Combat Freighter,High Tech,plasmajets,12,6000,600,8000,6000,300,120,,80,60,40,30,20,700,OMNI,,120,0.4,0.7,,,50,250,450,180,3,60,8,88000,4,12,360,0.25,12,12,38,150,,,21,83,,"hightech_bp, ind",,0.7,2,3,,416
Vindicator,swp_vindicator,Siege Cruiser,Low Tech,fastmissileracks,15,10000,1200,9000,8000,400,135,,40,25,30,12,20,1750,OMNI,,90,0.4,1,,,150,250,175,150,5,30,8,140000,4,12,540,0.25,28,28,,,,,,,,"lowtech_bp, merc, ind",,0.4,2,3,,417
Vindicator (S),swp_vindicator_o,Siege Cruiser,Low Tech,swp_ammoloader,15,10000,1200,9000,9000,450,120,,40,25,30,12,20,1750,OMNI,,90,0.4,1,,,150,250,175,150,5,30,8,180000,4,12,540,0.25,28,28,,,,,,,,"rare_bp, merc, kanta_gift",0.5,0.4,2,3,,417.5
Punisher,swp_punisher,Light Cruiser,Low Tech,swp_punisherjets,14,8000,1000,9000,8000,400,135,,50,60,30,20,20,800,FRONT,,90,0.4,1,,,100,150,100,100,3,33,8,95000,4,15,540,0.25,18,18,,,,,,,,"lowtech_bp, merc, ind",,0.5,2,3,,418
Eos,swp_eos,Carrier,High Tech,swp_pddrones,15,8000,700,6000,6000,300,110,4,60,30,30,10,10,2000,FRONT,,360,0.6,0.6,,,150,300,75,80,4,20,8,150000,3,15,420,0.25,25,25,,,,,,,"CARRIER, COMBAT","rare_bp, merc, ind",,0.4,2,3,,407
Shimmer,swp_shimmer,Droneship Carrier,Remnant,displacer,16,7000,650,7000,6000,300,100,4,40,30,20,15,10,1750,OMNI,,270,0.5,0.6,,,0,0,100,40,4,10,9,155000,5,20,540,0.25,22,22,,,,,,,"CARRIER, UNBOARDABLE, HIDE_IN_CODEX","remnant, auto_rec",,0.5,2,3,,317
,,,,,,,,,,,,,,,,,,,,,,,,,,,,,,,,,,,,,,,,,,,,,,,,,,,,,
Cathedral,swp_cathedral,Hubship,Luddic Church,swp_mine_strike_lt,40,10000,1000,15000,10000,400,140,2,20,4,3,3,3,2000,OMNI,,360,0.5,1,,,3000,10000,2500,3000,20,150,6,950000,2,15,840,0.25,85,85,29,125,35,150,59,250,"SHIP_WITH_MODULES, NEVER_DODGE_MISSILES","hist3t, req_military",,0.4,2,3,,507
Victory,swp_victory,Battleship,Midline,swp_victoryjets,30,20000,1600,22000,32500,1300,345,,35,15,10,5,4,4000,FRONT,,120,0.3,0.8,,,650,1000,300,400,15,27,7,475000,3,15,660,0.25,55,55,,,,,,,,"rare_bp, hist3t, merc",,0.4,2,4,,511
Chronos,swp_chronos,Battlecruiser,High Tech,swp_timeaccelerator,22,9000,1000,15000,22500,900,225,,65,50,40,12,20,1750,OMNI,,180,0.3,0.8,,,200,350,250,300,10,30,8,275000,4,20,600,0.25,35,35,,,,,,,,"rare_bp, hist3t, merc",,0.6,2,4,,512
Liberator,swp_liberator,Light Battleship,Low Tech,swp_punisherjets,24,16000,1600,18000,15000,600,270,1,45,25,35,5,8,3250,OMNI,,120,0.3,1,,,500,1000,400,400,12,33,7,290000,4,12,720,0.25,35,35,,,,,,,,"rare_bp, merc",,0.4,2,4,,500
Liberator (LC),swp_liberator_luddic_church,Light Battleship,Luddic Church,swp_punisherjets,24,16000,1600,18000,15000,600,270,,45,25,35,5,8,3250,OMNI,,120,0.3,1,,,500,1000,400,400,12,33,7,290000,4,12,720,0.25,35,35,,,,,,,,rare_bp,,0.4,2,4,,500
Wall,swp_wall,Drone Battleship,Explorarium,burndrive,18,15000,1750,9000,10000,400,145,,25,20,5,3,6,2500,NONE,,0,0,0,,,0,0,200,100,10,10,7,375000,4,15,720,0.25,40,40,,,,,,,"SHIP_WITH_MODULES, UNBOARDABLE, HIDE_IN_CODEX","derelict, auto_rec",,0.5,2,4,,412
Solar,swp_solar,Droneship Battlecarrier,Remnant,plasmajets,30,20000,1400,30000,35000,1500,400,3,25,10,10,6,8,4000,OMNI,,180,0.4,0.7,,,0,0,250,200,10,20,7,750000,4,20,720,0.25,55,55,,,,,,,"UNBOARDABLE, HIDE_IN_CODEX","remnant, auto_rec",,0.5,2,4,,504
,,,,,,,,,,,,,,,,,,,,,,,,,,,,,,,,,,,,,,,,,,,,,,,,,,,,,
,swp_cathedral_base,Base Structure,,,1,5000,1000,0,2500,100,0,,0,0,0,10,10,1250,NONE,,0,0,0,,,0,0,0,0,1,0,,1,,1,840,0.25,0,0,,,,,,,"UNDER_PARENT, UNBOARDABLE, HIDE_IN_CODEX",module_no_status_bar,,1,2,4,,2100
,swp_cathedral_rear,Engine Module,,flarelauncher,1,15000,1200,10000,7000,350,120,,0,0,0,10,10,2500,NONE,,0,0,0,,,0,0,0,0,1,0,,1,,1,840,0.25,0,0,,,,,,,"UNBOARDABLE, HIDE_IN_CODEX",,,1,2,4,,2100
,swp_cathedral_gun_left,Gunnery Module,,ammofeed,1,8000,1200,6000,5000,250,90,,0,0,0,10,10,600,NONE,,0,0,0,,,0,0,0,0,1,0,,1,,1,840,0.25,0,0,,,,,,,"UNBOARDABLE, HIDE_IN_CODEX",,,0.5,2,3,,2100
,swp_cathedral_gun_right,Gunnery Module,,ammofeed,1,8000,1200,6000,5000,250,90,,0,0,0,10,10,600,NONE,,0,0,0,,,0,0,0,0,1,0,,1,,1,840,0.25,0,0,,,,,,,"UNBOARDABLE, HIDE_IN_CODEX",,,0.5,2,3,,2100
,swp_cathedral_fighter_left,Hangar Module,,reservewing,1,6000,1200,3000,2500,125,60,1,0,0,0,10,10,350,NONE,,0,0,0,,,0,0,0,0,1,0,,1,,1,840,0.25,0,0,,,,,,,"UNBOARDABLE, HIDE_IN_CODEX",,,0.4,2,2,,2100
,swp_cathedral_fighter_right,Hangar Module,,reservewing,1,6000,1200,3000,2500,125,60,1,0,0,0,10,10,350,NONE,,0,0,0,,,0,0,0,0,1,0,,1,,1,840,0.25,0,0,,,,,,,"UNBOARDABLE, HIDE_IN_CODEX",,,0.4,2,2,,2100
,swp_cathedral_front,Heavy Bastion,,damper,1,20000,1500,12000,8000,400,180,,0,0,0,10,10,2000,NONE,,0,0,0,,,0,0,0,0,1,0,,1,,1,840,0.25,0,0,,,,,,,"UNBOARDABLE, HIDE_IN_CODEX",,,1,2,4,,2100
,swp_wall_left,West Wall,,ammofeed,1,12000,1250,6000,6000,300,135,,30,20,10,5,5,1500,NONE,,0,0,0,,,0,0,0,0,1,0,,1,,1,720,0.25,0,0,,,,,,,"UNBOARDABLE, HIDE_IN_CODEX",,,0.5,2,4,,2100
,swp_wall_right,East Wall,,ammofeed,1,12000,1250,6000,6000,300,140,,30,20,10,5,5,1500,NONE,,0,0,0,,,0,0,0,0,1,0,,1,,1,720,0.25,0,0,,,,,,,"UNBOARDABLE, HIDE_IN_CODEX",,,0.5,2,4,,2100
,,,,,,,,,,,,,,,,,,,,,,,,,,,,,,,,,,,,,,,,,,,,,,,,,,,,,
Death-Ray,swp_boss_ray_drone,,,,,150,150,2000,,75,,,200,400,500,90,240,15,NONE,,,,,,,,,,,,,,,,,,,,,,,,,,,HIDE_IN_CODEX,no_dealer,,0,,,,4
,,,,,,,,,,,,,,,,,,,,,,,,,,,,,,,,,,,,,,,,,,,,,,,,,,,,,
Boxer,swp_boss_brawler,Mod-Gunship,Unique Midline,ammofeed,8,2000,450,3000,3125,250,50,,100,180,120,60,120,250,FRONT,,270,0.4,0.8,,,15,30,40,20,1,20,9,36000,8,10,300,0.25,6,6,,,,,,,HIDE_IN_CODEX,"no_autofit, no_drop, no_bp_drop, no_dealer",,0.4,2,2,,207
Hades,swp_boss_cerberus,Mod-Freighter,Unique Low Tech,burndrive,6,2500,400,1250,1875,150,60,1,110,100,75,60,120,300,PHASE,damper,,,,,,20,50,100,40,1,40,10,27000,8,10,240,0.25,5,5,,,,,,,HIDE_IN_CODEX,"no_autofit, no_drop, no_bp_drop, no_dealer, special_allows_system_use, system_allows_special_use",,0.3,2,2,,213
Salamander,swp_boss_lasher_r,Mod-Frigate,Unique Low Tech,ammofeed,6,2500,450,2100,1750,140,50,,120,110,90,60,90,200,PHASE,damper,,,,,,25,50,40,25,1,25,10,27000,8,10,240,0.25,5,5,,,,,,,HIDE_IN_CODEX,"no_autofit, no_drop, no_bp_drop, no_dealer, special_allows_system_use, system_allows_special_use",,0.4,2,2,,204
Undine,swp_boss_lasher_b,Mod-Frigate,Unique High Tech,emp,6,1750,300,3000,2500,200,50,,120,110,90,60,90,200,OMNI,,210,0.4,0.6,,,25,50,40,25,1,25,10,27000,8,10,240,0.25,5,5,,,,,,,HIDE_IN_CODEX,"no_autofit, no_drop, no_bp_drop, no_dealer",,0.4,2,2,,204
Tenebris,swp_boss_shade,Phase Mod-Frigate,Unique High Tech,emp,12,1750,400,2500,3750,300,55,,165,120,100,60,120,200,PHASE,swp_boss_cloak,,,,0.04,0.04,10,15,25,50,1,50,10,120000,10,30,180,0.25,10,10,,,,,,,"HIDE_IN_CODEX, PHASE","no_autofit, no_drop, no_bp_drop, no_dealer",,0.5,2,2,,211
Tormentor,swp_boss_afflictor,Phase Mod-Frigate,Unique High Tech,entropyamplifier,13,1500,400,3000,5000,400,65,,165,120,100,60,120,200,PHASE,swp_boss_cloak,,,,0.02,0.03,5,10,25,50,1,50,10,126000,10,30,180,0.25,12,12,,,,,,,"HIDE_IN_CODEX, PHASE","no_autofit, no_drop, no_bp_drop, no_dealer",,0.5,2,2,,210
Royco,swp_boss_excelsior,Phase Mod-Superfrigate,Unique Imperium,swp_phaseshuntdrive,19,750,150,5000,625,50,45,,200,200,150,90,360,100,PHASE,swp_excelsiorphase,,,,0,-0.25,1,5,10,20,1,20,11,282000,10,40,120,0.25,24,24,,,,,,,"HIDE_IN_CODEX, PHASE","no_autofit, no_drop, no_bp_drop, no_dealer",,0,2,2,,226
Phillipshead,swp_boss_hammerhead,Mod-Destroyer,Unique Midline,ammofeed,12,5000,500,6000,5833,350,120,,90,60,40,30,60,400,FRONT,,300,0.4,0.8,,,50,100,100,60,2,30,9,120000,5,12,360,0.25,10,10,,,,,,,HIDE_IN_CODEX,"no_autofit, no_drop, no_bp_drop, no_dealer",,0.5,2,3,,300
Fracture,swp_boss_sunder,Mod-Destroyer,Unique Midline,highenergyfocus,12,4000,250,7500,8333,500,120,,90,80,60,30,30,350,FRONT,,300,0.4,1.2,,,50,70,80,50,2,25,9,135000,5,15,300,0.25,13,13,,,,,,,HIDE_IN_CODEX,"no_autofit, no_drop, no_bp_drop, no_dealer",,0.5,2,3,,301
Carpal,swp_boss_tarsus,Mod-Freighter,Unique Low Tech,lidararray,9,7000,700,3600,4167,250,90,,70,50,40,40,25,400,PHASE,damper,,,,,,30,80,350,80,3,27,8,54000,5,20,420,0.25,7,7,,,,,,,HIDE_IN_CODEX,"no_autofit, no_drop, no_bp_drop, no_dealer",,0.5,2,3,,306
Gorgon,swp_boss_medusa,Mod-Destroyer,Unique High Tech,phaseteleporter,14,3000,300,6000,6667,400,100,,100,90,60,40,100,300,OMNI,,120,0.3,0.6,,,35,50,50,40,2,20,9,180000,5,20,300,0.25,14,14,,,,,,,HIDE_IN_CODEX,"no_autofit, no_drop, no_bp_drop, no_dealer",,0.7,2,3,,309
Pony,swp_boss_mule,Mod-Freighter,Unique Low Tech,entropyamplifier,11,5500,650,6000,5000,300,90,1,60,40,20,20,15,500,OMNI,,120,0.4,1,,,40,100,250,80,2,40,9,102000,5,10,420,0.25,10,10,,,,,,,HIDE_IN_CODEX,"no_autofit, no_drop, no_bp_drop, no_dealer",,0.5,2,3,,310
Clymene,swp_boss_phaeton,Mod-Tanker,Unique Low Tech,ammofeed,9,4000,450,4000,5000,300,85,,75,45,30,35,25,400,OMNI,,120,0.4,1,,,10,20,20,800,2,400,8,66000,5,20,300,0.25,8,8,,,,,,,HIDE_IN_CODEX,"no_autofit, no_drop, no_bp_drop, no_dealer",,0.75,3,4,,311
Euryale,swp_boss_euryale,Phase Mod-Destroyer,Unique High Tech,acausaldisruptor,15,4000,650,5000,10000,500,120,,100,75,50,30,30,400,PHASE,swp_boss_cloak,,,,0.04,0.03,25,50,60,100,2,50,9,360000,5,30,300,0.25,24,24,,,,,,,"HIDE_IN_CODEX, PHASE","no_autofit, no_drop, no_bp_drop, no_dealer",,0.5,2,3,,309
Elder Orb,swp_boss_beholder,Mod-Destroyer,Unique High Tech,swp_boss_drone_death_ray,12,4000,500,4500,5000,300,90,,60,40,40,20,60,400,OMNI,,180,0.5,0.8,,,40,60,70,40,2,20,9,171000,5,15,300,0.25,13,13,,,,,,,HIDE_IN_CODEX,"no_autofit, no_drop, no_bp_drop, no_dealer",,0.5,2,3,,309
Raptor,swp_boss_falcon,Mod-Cruiser,Unique Midline,swp_timeaccelerator,14,6000,750,7000,8000,400,130,,80,70,50,20,25,650,FRONT,,270,0.4,0.8,,,100,180,120,100,3,33,9,240000,4,12,480,0.25,17,17,,,,,,,HIDE_IN_CODEX,"no_autofit, no_drop, no_bp_drop, no_dealer",,0.5,2,3,,400
Dawnstar,swp_boss_aurora,Mod-Cruiser,Unique High Tech,plasmajets,20,8000,800,11000,16000,800,190,,80,50,25,25,25,1800,OMNI,,180,0.5,0.6,,,75,200,150,90,3,30,8,600000,4,20,420,0.25,36,36,,,,,,,HIDE_IN_CODEX,"no_autofit, no_drop, no_bp_drop, no_dealer",,0.6,2,3,,405
Kingfisher,swp_boss_eagle,Mod-Cruiser,Unique Midline,swp_punisherjets,17,8000,1000,11000,14000,700,175,,60,40,30,15,20,1200,FRONT,,270,0.4,0.8,,,150,250,150,100,3,33,8,300000,3,12,480,0.25,24,24,,,,,,,HIDE_IN_CODEX,"no_autofit, no_drop, no_bp_drop, no_dealer",,0.5,2,3,,401
Emperor,swp_boss_dominator,Mod-Cruiser,Unique Low Tech,damper,18,14000,1500,10000,10000,500,215,,30,20,10,12,12,2250,FRONT,,150,0.4,1,,,200,300,150,150,5,30,8,375000,4,12,540,0.25,30,30,,,,,,,HIDE_IN_CODEX,"no_autofit, no_drop, no_bp_drop, no_dealer",,0.4,2,3,,404
Lucifer,swp_boss_doom,Phase Mod-Cruiser,Unique High Tech,mine_strike,26,8000,1250,10000,18000,900,165,,75,55,40,20,25,1200,PHASE,swp_boss_cloak,,,,0.04,0.04,50,100,120,150,3,50,8,750000,4,30,420,0.25,42,42,,,,,,,"HIDE_IN_CODEX, PHASE","no_autofit, no_drop, no_bp_drop, no_dealer",,0.5,2,3,,406
Dominator (LP),swp_boss_dominator_luddic_path,Mod-Cruiser,Unique Luddic Path,ammofeed,18,14000,1500,10000,10000,500,220,,30,20,10,12,12,2250,FRONT,,150,0.4,1,,,200,300,150,150,5,30,8,375000,4,12,540,0.25,30,30,,,,,,,HIDE_IN_CODEX,"no_autofit, no_drop, no_bp_drop, no_dealer",,0.4,2,3,,404
Frankenstein,swp_boss_frankenstein,Mod-Cruiser,Unique Low Tech,swp_ammoloader,20,12000,1200,11000,10000,500,170,,40,25,30,12,20,1750,OMNI,,120,0.4,1,,,150,250,175,150,5,30,8,540000,4,12,540,0.25,37,37,,,,,,,HIDE_IN_CODEX,"no_autofit, no_drop, no_bp_drop, no_dealer",,0.4,2,3,,417
Iliad,swp_boss_odyssey,Mod-Battlecruiser,Unique High Tech,microburn,30,10000,1000,25000,25000,1000,310,2,70,50,40,8,12,2500,OMNI,,180,0.25,1,,,400,800,400,450,8,56,8,990000,4,20,600,0.25,54,54,,,,,,,HIDE_IN_CODEX,"no_autofit, no_drop, no_bp_drop, no_dealer",,0.6,2,4,,505
Leviathan,swp_boss_atlas,Mod-Superfreighter,Unique Low Tech,reservewing,22,13500,1150,12000,8750,350,210,4,20,5,3,3,1,6000,OMNI,,90,0.5,1,,,375,450,1000,600,10,60,7,450000,2,20,720,0.25,29,29,,,,,,,"HIDE_IN_CODEX, CARRIER, COMBAT, NO_AUTO_ESCORT","no_autofit, no_drop, no_bp_drop, no_dealer",,0.75,2,4,,502
Onslaught (LP),swp_boss_onslaught_luddic_path,Mod-Battleship,Unique Luddic Path,ammofeed,34,20000,1750,17000,15000,600,390,,25,10,10,4,4,3500,FRONT,,180,0.4,1,,,750,1500,300,400,15,27,7,1050000,3,12,720,0.25,48,48,,,,,,,HIDE_IN_CODEX,"no_autofit, no_drop, no_bp_drop, no_dealer",,0.4,2,4,,500
Ares,swp_boss_onslaught,Mod-Battleship,Unique Low Tech,swp_boss_aresdrive,34,20000,1750,17000,15000,600,400,,25,10,10,4,4,3500,FRONT,,180,0.4,1,,,750,1500,300,400,15,27,7,1050000,3,12,720,0.25,48,48,,,,,,,HIDE_IN_CODEX,"no_autofit, no_drop, no_bp_drop, no_dealer",,0.4,2,4,,500
Nike,swp_boss_conquest,Mod-Battlecruiser,Unique Midline,swp_boss_nikejets,29,12000,1200,20000,30000,1200,345,,45,20,15,6,4,2500,OMNI,,90,0.4,1.4,,,400,500,300,300,10,30,8,900000,3,15,600,0.25,48,48,,,,,,,HIDE_IN_CODEX,"no_autofit, no_drop, no_bp_drop, no_dealer",,0.5,2,4,,503
Zeus,swp_boss_paragon,Mod-Battleship,Unique High Tech,swp_boss_zeusshield,36,18000,1500,25000,31250,1250,410,,30,15,10,5,5,3500,OMNI,,360,0.6,0.6,,,400,1000,300,300,10,30,7,1500000,4,20,720,0.25,72,72,,,,,,,HIDE_IN_CODEX,"no_autofit, no_drop, no_bp_drop, no_dealer",,0.6,2,4,,504
,swp_boss_sporeship,Domain-era Sporeship,Unique Explorarium,swp_victoryjets,150,82500,1500,15000,17500,700,0,,20,4,3,0.5,1.5,6850,NONE,,0,0,0,,,0,0,20000,50000,30,1667,5,1200000,10,10,,,150,150,,,,,,,"SHIP_WITH_MODULES, UNBOARDABLE, HIDE_IN_CODEX, NEVER_DODGE_MISSILES","no_autofit, no_drop, no_bp_drop, restricted, no_dealer",,0,,,,412
,,,,,,,,,,,,,,,,,,,,,,,,,,,,,,,,,,,,,,,,,,,,,,,,,,,,,
,swp_boss_sporeship_bl,"Engine Section, Left",,flarelauncher,1,10000,800,3500,3333,200,70,,0,0,0,10,10,850,NONE,,0,0,0,,,0,0,0,0,1,0,,500000,,1,,,0,0,,,,,,,"UNBOARDABLE, HIDE_IN_CODEX","no_autofit, restricted",,1,2,4,,2100
,swp_boss_sporeship_br,"Engine Section, Right",,flarelauncher,1,9500,800,3500,3333,200,75,1,0,0,0,10,10,800,NONE,,0,0,0,,,0,0,0,0,1,0,,500000,,1,,,0,0,,,,,,,"UNBOARDABLE, HIDE_IN_CODEX","no_autofit, restricted",,1,2,4,,2100
,swp_boss_sporeship_ll,"Autofactory Section, Left",,forgevats_station,1,8500,1000,2500,2500,150,60,1,0,0,0,10,10,700,NONE,,0,0,0,,,0,0,0,0,1,0,,500000,,1,,,0,0,,,,,,,"UNBOARDABLE, HIDE_IN_CODEX","no_autofit, restricted",,1,2,4,,2100
,swp_boss_sporeship_lr,"Autofactory Section, Right",,forgevats_station,1,9000,1000,4500,4167,250,80,,0,0,0,10,10,750,NONE,,0,0,0,,,0,0,0,0,1,0,,500000,,1,,,0,0,,,,,,,"UNBOARDABLE, HIDE_IN_CODEX","no_autofit, restricted",,1,2,4,,2100
,swp_boss_sporeship_ml,"Magazine Section, Left",,fastmissileracks,1,7500,1200,2000,1667,100,100,,0,0,0,10,10,650,NONE,,0,0,0,,,0,0,0,0,1,0,,500000,,1,,,0,0,,,,,,,"UNBOARDABLE, HIDE_IN_CODEX","no_autofit, restricted",,1,2,3,,2100
,swp_boss_sporeship_mr,"Magazine Section, Right",,ammofeed,1,5500,1200,4000,5000,300,70,,0,0,0,10,10,450,NONE,,0,0,0,,,0,0,0,0,1,0,,500000,,1,,,0,0,,,,,,,"UNBOARDABLE, HIDE_IN_CODEX","no_autofit, restricted",,1,2,2,,2100
,swp_boss_sporeship_top,Command Core Section,,highenergyfocus,1,19500,1000,30000,20000,1000,100,,0,0,0,10,10,1600,NONE,,0,0,0,,,0,0,0,0,1,0,,500000,,1,,,0,0,,,,,,,"UNBOARDABLE, HIDE_IN_CODEX","no_autofit, restricted",,1,4,7,,2100
,swp_boss_sporeship_ul,Deflector Section,,damper,1,8000,1500,4500,4167,250,75,,0,0,0,10,10,650,NONE,,0,0,0,,,0,0,0,0,1,0,,500000,,1,,,0,0,,,,,,,"UNBOARDABLE, HIDE_IN_CODEX","no_autofit, restricted",,1,2,3,,2100
,swp_boss_sporeship_ur,Sensor Section,,acausaldisruptor,1,19000,1000,8000,8000,400,140,,0,0,0,10,10,1600,NONE,,0,0,0,,,0,0,0,0,1,0,,500000,,1,,,0,0,,,,,,,"UNBOARDABLE, HIDE_IN_CODEX","no_autofit, restricted",,1,4,8,,2100
,,,,,,,,,,,,,,,,,,,,,,,,,,,,,,,,,,,,,,,,,,,,,,,,,,,,,
Helios,swp_arcade_superhyperion,Artifact Frigate,,swp_arcade_superjet,40,3000,500,15000,13333,800,150,,300,600,600,300,600,150,FRONT,,360,0.3,0.8,,,15,15,5,50,1,50,11,2000000,1,20,,,80,80,,,,,,,"UNBOARDABLE, HIDE_IN_CODEX","no_autofit, no_drop, no_bp_drop, restricted, no_dealer",,1,3,6,,600
Oberon,swp_arcade_oberon,Alien Battlecruiser,,swp_arcade_faeriedisplacer,45,20000,1500,100000,100000,4000,260,4,40,40,30,10,20,3500,PHASE,swp_arcade_faerievortex,,,,0.05,0.05,250,350,350,750,10,75,7,20000000,1,20,,,90,90,,,,,,,"UNBOARDABLE, HIDE_IN_CODEX","no_autofit, no_drop, no_bp_drop, restricted, no_dealer",,0,2,4,,601
Ultron,swp_arcade_ultron,Lost Cruiser,,swp_arcade_shieldbreaker,60,15000,1000,125000,100000,5000,130,4,80,40,80,15,10,2500,OMNI,,360,0.25,0.4,,,200,300,150,200,5,40,8,10000000,1,20,,,120,120,,,,,,,"UNBOARDABLE, HIDE_IN_CODEX","no_autofit, no_drop, no_bp_drop, restricted, no_dealer",,0,2,3,,602
Zeus,swp_arcade_zeus,Prototype Battleship,,swp_arcade_phasetunneler,75,30000,1500,200000,150000,6000,450,,25,10,10,14,20,4500,FRONT,,90,0.6,0.6,,,1000,1500,500,500,30,16,7,40000000,1,20,,,150,150,,,,,,,"UNBOARDABLE, HIDE_IN_CODEX","no_autofit, no_drop, no_bp_drop, restricted, no_dealer",,0,2,4,,603
Ezekiel,swp_arcade_ezekiel,Advanced Destroyer,,swp_arcade_forceimpeder,90,10000,750,75000,41667,2500,350,,150,200,150,45,80,400,PHASE,swp_arcade_forceburst,,,,0.2,0,50,50,50,80,2,40,9,7500000,1,20,,,180,180,,,,,,,"UNBOARDABLE, HIDE_IN_CODEX","no_autofit, no_drop, no_bp_drop, restricted, no_dealer",,0,2,3,,604
Cristarium,swp_arcade_cristarium,Exotic Battlestar,,swp_arcade_cristariumdrones,105,20000,200,200000,250000,10000,150,,30,15,30,10,10,2000,PHASE,swp_arcade_prismaticray,,,,0.05,0.05,1,1,0,1,0,0,7,30000000,1,20,,,210,210,,,,,,,"UNBOARDABLE, HIDE_IN_CODEX","no_autofit, no_drop, no_bp_drop, restricted, no_dealer",,0,2,4,,605
Prism,swp_arcade_crystaldrone,,,,,200,10,3000,,600,,,200,200,200,10,1,15,NONE,,,,,,,,,,,,,,,,,,,,,,,,,,,HIDE_IN_CODEX,"no_autofit, restricted",,0,,,,606
Zero,swp_arcade_zero,Final Cruiser,,swp_arcade_sonido,135,20000,1000,100000,100000,5000,150,,125,300,300,30,30,700,PHASE,swp_arcade_omegadrive,,,,0.2,0.02,2,200,100,50,0.5,100,8,50000000,1,20,,,270,270,,,,,,,"UNBOARDABLE, HIDE_IN_CODEX","no_autofit, no_drop, no_bp_drop, restricted, no_dealer",,0,2,3,,607
Super Zero,swp_arcade_superzero,Last Cruiser,,swp_arcade_sonido,150,25000,1250,120000,120000,6000,155,,150,400,400,35,35,700,PHASE,swp_arcade_omegadrive,,,,0.15,0.015,2,200,100,50,0.5,100,8,60000000,1,20,,,300,300,,,,,,,"UNBOARDABLE, HIDE_IN_CODEX","no_autofit, no_drop, no_bp_drop, restricted, no_dealer",,0,2,3,,608
Omega Zero,swp_arcade_hyperzero,The End,,swp_arcade_sonido,165,30000,1500,140000,140000,7000,160,,175,500,500,40,40,700,PHASE,swp_arcade_omegadrive,,,,0.1,0.01,2,200,100,50,0.5,100,8,70000000,1,20,,,330,330,,,,,,,"UNBOARDABLE, HIDE_IN_CODEX","no_autofit, no_drop, no_bp_drop, restricted, no_dealer",,0,2,3,,609
Archangel,swp_arcade_archangel,Calamity Rammer,,burndrive,60,40000,2000,100000,100000,5000,80,,60,60,60,20,20,10000,NONE,,,,,,,250,500,150,100,20,5,7,12000000,1,20,,,120,120,,,,,,,"UNBOARDABLE, HIDE_IN_CODEX","no_autofit, no_drop, no_bp_drop, restricted, no_dealer",,0,2,4,,610
Banana,swp_arcade_banana,Fruit,,swp_chronoboost,60,30000,3000,10000,10000,500,50,,150,50,20,150,30,10000,NONE,,,,,,,1,1,1000,1000,5,200,10,8000000,1,20,,,90,90,,,,,,,"UNBOARDABLE, HIDE_IN_CODEX","no_autofit, no_drop, no_bp_drop, restricted, no_dealer",,0.5,3,5,,611
